project 2
…
final_df

## # A tibble: 56 x 19
##    Coun~ Year  `Gro~ `Hos~ `Mea~ Min_~ Max_~ `Mea~ `Min~ Max_~ `Num~ `Num~
##    <chr> <chr> <dbl> <dbl> <dbl> <dbl> <dbl> <dbl> <dbl> <dbl> <dbl> <dbl>
##  1 Ugan~ 2015     NA NA      202   120   304  39.2  35.4  43.3  38.0  93.0
##  2 Ugan~ 2014     NA NA      202   127   294  41.0  37.8  44.5  38.0  97.0
##  3 Ugan~ 2005    890 NA      233   156   325  74.4  70.3  78.7  38.0 155  
##  4 Ugan~ 2004    840 NA      240   169   323  80.5  76.3  85.0  39.0 164  
##  5 Ugan~ 2003    800 NA      248   172   336  86.7  82.0  91.4  39.0 173  
##  6 Ugan~ 2002    760 NA      256   171   358  92.5  87.5  97.5  40.0 181  
##  7 Ugan~ 2013     NA NA      203   134   288  43.9  40.8  47.2  38.0 103  
##  8 Ugan~ 2012   1320 NA      205   135   289  46.5  43.2  50.0  38.0 109  
##  9 Ugan~ 2011   1310 NA      207   143   283  49.5  46.1  53.3  38.0 114  
## 10 Ugan~ 2010   1240  5.00   210   139   296  52.7  49.2  56.4  38.0 119  
## # ... with 46 more rows, and 7 more variables: `Poliomyelitis - number of
## #   reported cases` <dbl>, Mean_Tuberculosis_Coverage <dbl>,
## #   Min_Tuberculosis_Coverage <dbl>, Max_Tuberculosis_Coverage <dbl>,
## #   `Mean_Under-five_Mortality_Rate/1000` <dbl>,
## #   `Min_Under-five_Mortality_Rate` <dbl>, `Max_Under-five_Mortality_Rate`
## #   <dbl>

Ukraine has seen a reduction of around 40%

US and UK have also seen a reduction, however UK seems to have a more substantial reduction(30%) over the US reduction of (17%)

Look at Tuberculosis

final_df

## # A tibble: 56 x 19
##    Coun~ Year  `Gro~ `Hos~ `Mea~ Min_~ Max_~ `Mea~ `Min~ Max_~ `Num~ `Num~
##    <chr> <chr> <dbl> <dbl> <dbl> <dbl> <dbl> <dbl> <dbl> <dbl> <dbl> <dbl>
##  1 Ugan~ 2015     NA NA      202   120   304  39.2  35.4  43.3  38.0  93.0
##  2 Ugan~ 2014     NA NA      202   127   294  41.0  37.8  44.5  38.0  97.0
##  3 Ugan~ 2005    890 NA      233   156   325  74.4  70.3  78.7  38.0 155  
##  4 Ugan~ 2004    840 NA      240   169   323  80.5  76.3  85.0  39.0 164  
##  5 Ugan~ 2003    800 NA      248   172   336  86.7  82.0  91.4  39.0 173  
##  6 Ugan~ 2002    760 NA      256   171   358  92.5  87.5  97.5  40.0 181  
##  7 Ugan~ 2013     NA NA      203   134   288  43.9  40.8  47.2  38.0 103  
##  8 Ugan~ 2012   1320 NA      205   135   289  46.5  43.2  50.0  38.0 109  
##  9 Ugan~ 2011   1310 NA      207   143   283  49.5  46.1  53.3  38.0 114  
## 10 Ugan~ 2010   1240  5.00   210   139   296  52.7  49.2  56.4  38.0 119  
## # ... with 46 more rows, and 7 more variables: `Poliomyelitis - number of
## #   reported cases` <dbl>, Mean_Tuberculosis_Coverage <dbl>,
## #   Min_Tuberculosis_Coverage <dbl>, Max_Tuberculosis_Coverage <dbl>,
## #   `Mean_Under-five_Mortality_Rate/1000` <dbl>,
## #   `Min_Under-five_Mortality_Rate` <dbl>, `Max_Under-five_Mortality_Rate`
## #   <dbl>
…
Summary Explorations

food_war <-food_war %>% 
    dplyr::group_by(Deaths_from_war,Year)
agricultural_spending_by_year <- food_war %>% 
    dplyr::summarize(agri_exp_mean=mean(Agricultural_expend, na.rm = TRUE))
food_war %>% 
    dplyr::summarize(mean(Military_expend, na.rm = TRUE))

## # A tibble: 80 x 3
## # Groups: Deaths_from_war [?]
##    Deaths_from_war Year  `mean(Military_expend, na.rm = TRUE)`
##    <fctr>          <chr>                                 <dbl>
##  1 no_deaths       1988                                   2.32
##  2 no_deaths       1989                                   2.27
##  3 no_deaths       1990                                   2.36
##  4 no_deaths       1991                                   2.22
##  5 no_deaths       1992                                   1.99
##  6 no_deaths       1993                                   1.97
##  7 no_deaths       1994                                   1.91
##  8 no_deaths       1995                                   1.83
##  9 no_deaths       1996                                   1.74
## 10 no_deaths       1997                                   1.87
## # ... with 70 more rows
…
food_war %>% 
    dplyr::summarize(mean(food_security, na.rm = TRUE))

## # A tibble: 4 x 2
##   Deaths_from_war `mean(food_security, na.rm = TRUE)`
##   <fctr>                                        <dbl>
## 1 no_deaths                                      2827
## 2 low_deaths                                     2913
## 3 moderate_deaths                                2147
## 4 high_deaths                                    2234

food_war    

## # A tibble: 1,660 x 7
## # Groups: Deaths_from_war [4]
##    Country Year  Agricultural_expend food_security Militar~ avera~ Deaths~
##    <chr>   <chr>               <dbl>         <dbl>    <dbl>  <dbl> <fctr> 
##  1 Algeria 1988                12.2           2795     1.75   10.9 high_d~
##  2 Algeria 1989                13.0           2863     1.54   10.9 high_d~
##  3 Algeria 1990                11.4           2856     1.46   10.9 high_d~
##  4 Algeria 1991                10.2           2835     1.23   10.9 high_d~
##  5 Algeria 1992                12.1           2973     2.19   10.9 high_d~
##  6 Algeria 1993                12.1           2972     2.56   10.9 high_d~
##  7 Algeria 1994                10.1           2865     3.14   10.9 high_d~
##  8 Algeria 1995                10.5           2891     2.95   10.9 high_d~
##  9 Algeria 1996                11.8           2894     3.09   10.9 high_d~
## 10 Algeria 1997                 9.48          2844     3.63   10.9 high_d~
## # ... with 1,650 more rows
…
My categories arent of even sizes so my clustering could effect my observations and lead to large impact from outliers

I dont have an overall GDP per country, this could make a big difference in relative % GDP expenditures +Tentative Observations

Areas with the most death from wars seem to spend more of their GDP on agricultural expenditures

Areas with the most deaths dont spend much on military expenditures, and low death areas actually spend more than high death areas

High and moderate death areas are significantly more food insecure. Calorie consumption is about 30% lower in these areas

Data Visualization

food_security_by_year

## # A tibble: 80 x 3
## # Groups: Deaths_from_war [?]
##    Deaths_from_war Year  my_mean
##    <fctr>          <chr>   <dbl>
##  1 no_deaths       1988     2744
##  2 no_deaths       1989     2741
##  3 no_deaths       1990     2734
##  4 no_deaths       1991     2745
##  5 no_deaths       1992     2766
##  6 no_deaths       1993     2758
##  7 no_deaths       1994     2772
##  8 no_deaths       1995     2780
##  9 no_deaths       1996     2801
## 10 no_deaths       1997     2809
## # ... with 70 more rows
…
